<svg width="110" height="50" viewBox="0 0 110 50" fill="none" xmlns="http://www.w3.org/2000/svg">
<path fill-rule="evenodd" clip-rule="evenodd" d="M16.7143 1.38411C14.9779 1.99003 13.329 2.78268 11.7917 3.73808L15.2683 5.77844L20.9389 9.10665C22.0541 8.51294 23.2362 8.02897 24.4713 7.669L19.7154 3.81582L16.7143 1.38411ZM6.11935 8.56904C4.90912 9.95958 3.85051 11.4855 2.9692 13.121L7.00997 14.1026L13.8253 15.7579C14.5216 14.639 15.3326 13.5986 16.2424 12.654L9.91333 10.1001L6.11935 8.56915V8.56904ZM2.54509 13.9446C1.73488 15.5928 1.10123 17.3434 0.668662 19.1721L4.80055 19.5624L11.8055 20.2239C12.1914 18.942 12.7112 17.7184 13.3485 16.5685L6.56616 14.9214L2.54509 13.9445V13.9446ZM1.27811 32.8323C1.86904 34.6024 2.6527 36.2844 3.60499 37.8528L7.24489 36.581L13.2421 34.4857C12.6153 33.3232 12.1079 32.0866 11.7365 30.7928L5.19479 32.0685L1.27801 32.8323H1.27811ZM0.0504307 26.5308C0.169173 28.407 0.495741 30.227 1.00679 31.9677L4.93129 31.2025L11.509 29.9197C11.2115 28.6545 11.043 27.3395 11.0171 25.9897L4.13071 26.3295L0.0504307 26.5308ZM7.73431 37.3638L4.09923 38.6338C5.11234 40.1713 6.29131 41.5897 7.61032 42.8642L10.8681 41.1665L16.0973 38.4415C15.1903 37.4784 14.3841 36.4193 13.6959 35.2807L7.73421 37.3638H7.73431ZM8.31004 43.5148C9.66032 44.7239 11.1434 45.788 12.7344 46.6821L15.5379 44.6555L19.8683 41.5251C18.7481 40.8299 17.7062 40.0202 16.7603 39.1114L11.5663 41.8179L8.31004 43.5148ZM4.59412 20.4475L0.476254 20.0586C0.164141 21.6344 0 23.2638 0 24.9314C0 25.1656 0.00353336 25.3989 0.00985058 25.6314L4.10287 25.4294L11.0208 25.088C11.0592 23.7186 11.2457 22.3861 11.5634 21.1055L4.59423 20.4475H4.59412ZM41.3716 6.18231C40.0358 5.01041 38.5737 3.97878 37.0083 3.11086L38.2715 6.15201L39.8243 9.8903C40.7584 10.4917 41.6346 11.1747 42.4445 11.9281L41.8896 8.95568L41.3717 6.18231H41.3716ZM14.3958 6.31048L10.9474 4.28661C9.42347 5.32124 8.02009 6.52023 6.76307 7.85777L10.5809 9.39831L16.9418 11.9652C17.8865 11.0816 18.9221 10.2941 20.0344 9.61984L14.3958 6.31058V6.31048ZM35.7656 2.46639C34.1874 1.70404 32.5164 1.10337 30.7744 0.685258L32.6877 3.65938L35.3426 7.78614C36.4549 8.13712 37.5223 8.58917 38.5339 9.13138L36.988 5.40968L35.7655 2.4665L35.7656 2.46639ZM23.0511 0.067348C21.2167 0.204292 19.4377 0.539962 17.7351 1.05251L20.7697 3.5112L25.5546 7.38815C26.7478 7.11705 27.9839 6.95997 29.2515 6.92892L25.521 2.80056L23.0511 0.067348ZM26.4669 2.50451L25.853 1.82525L25.2391 1.14588L24.6252 0.466618L24.2107 0.00770915C24.329 0.004497 24.4475 0.00171314 24.5659 0H25.3132C25.4251 0.00171314 25.5367 0.00396165 25.6483 0.00728086V0.00803037H25.6808C25.7491 0.0102789 25.8175 0.0123132 25.8858 0.0148829V0.0161678H25.9208C26.032 0.0206648 26.1431 0.0255901 26.2542 0.031372V0.0326568H26.2757C26.3174 0.0349053 26.3596 0.0371538 26.4014 0.0395094V0.0407943H26.4216C26.4613 0.0430428 26.5011 0.0455054 26.5408 0.0480751V0.0488246H26.5545C26.632 0.053857 26.709 0.0591035 26.7863 0.0646712V0.0650995H26.7919L26.8844 0.0721662V0.0732369H26.8994L26.9827 0.0798754V0.0813744H27.0017L27.0891 0.0889764V0.0897259H27.0989L27.1873 0.0974351V0.0979705H27.192C27.2478 0.102896 27.3036 0.108035 27.3592 0.113389V0.114245H27.3672L27.441 0.121526V0.122276H27.4505L27.5147 0.129021V0.13052H27.5306L27.5966 0.137587V0.138658H27.608L27.6784 0.146367V0.146795H27.6837L27.752 0.154504V0.155254H27.7572C27.8266 0.162963 27.8958 0.1711 27.9648 0.179452V0.179773H27.967L28.0222 0.186626V0.187911H28.0336L28.0876 0.194763V0.196048H28.0988L28.1531 0.203115V0.204078H28.1629L28.2185 0.211359V0.212216H28.2253L28.2839 0.220139V0.220674H28.2867C28.3459 0.228598 28.4049 0.236735 28.464 0.245087H28.4642L28.5213 0.253331H28.5215L28.5704 0.260398V0.261362H28.5779L28.6277 0.268642V0.269499H28.6333L28.685 0.277208V0.277958H28.688L28.7341 0.28481V0.286095H28.7414L28.7914 0.29359V0.29434H28.7946L28.8404 0.301406V0.30237H28.8469L28.8978 0.310615H28.8985C28.9474 0.318538 28.9961 0.326461 29.0451 0.334384V0.335241H29.0489L29.0942 0.342736V0.343378H29.098L29.1431 0.350873V0.351623H29.1463L29.1923 0.359332V0.35976H29.194L29.2333 0.366613V0.367898H29.2412L29.2825 0.374965V0.376035H29.288L29.3313 0.383744V0.384173H29.3343L29.4214 0.399912V0.400662H29.4251C29.4612 0.407193 29.4972 0.413724 29.5333 0.42047L31.4044 3.32885L34.0408 7.42723C32.8895 7.15441 31.6971 6.98867 30.4743 6.93952L26.7179 2.78236L26.4665 2.50419L26.4669 2.50451ZM45.9777 11.5511C44.9749 9.97725 43.8003 8.52364 42.4807 7.21641L43.0223 10.117L43.5739 13.0702C44.3014 13.8733 44.9594 14.7399 45.5402 15.6603L45.7375 13.8056L45.9777 11.551V11.5511ZM32.3294 48.7505C33.9262 48.2553 35.454 47.6039 36.8957 46.814L37.6808 44.4853L38.4679 42.1515C37.4069 42.7147 36.2853 43.1788 35.115 43.5312L33.6211 46.3301L32.3293 48.7505H32.3294ZM42.9214 42.1985C43.9746 41.1017 44.9287 39.9089 45.7687 38.6346L45.6232 36.6689L45.5429 35.5833C44.9393 36.5406 44.2516 37.4393 43.4899 38.2689L43.2533 39.9037L42.9214 42.1984V42.1985ZM26.0572 49.8402C27.7998 49.7629 29.4957 49.5073 31.1274 49.0903L32.4022 46.7018L33.9253 43.8483C32.7312 44.123 31.4936 44.2833 30.2244 44.3174L27.8555 47.4568L26.0571 49.8402H26.0572ZM21.9811 47.0524L19.6708 49.3088C21.3601 49.6717 23.113 49.8638 24.9104 49.8655L26.6964 47.4984L29.0995 44.3135C27.7982 44.2714 26.5308 44.0964 25.3102 43.8018L21.9814 47.0523L21.9811 47.0524ZM38.0788 46.123C39.4316 45.2823 40.6977 44.3155 41.8613 43.2393L42.1789 41.043L42.4253 39.3379C41.5702 40.1309 40.6408 40.8451 39.6485 41.4686L38.8846 43.734L38.0788 46.1231V46.123ZM13.6169 47.1549C15.1991 47.9625 16.8791 48.6056 18.6342 49.0625L20.9371 46.8134L24.3014 43.5281C23.0459 43.1493 21.8462 42.6423 20.7175 42.0218L16.4232 45.1262L13.6168 47.1549H13.6169Z" fill="#FECC00"/>
<path fill-rule="evenodd" clip-rule="evenodd" d="M16.7143 1.38411C14.9779 1.99003 13.329 2.78268 11.7917 3.73808L15.2683 5.77844L20.9389 9.10665C22.0541 8.51294 23.2362 8.02897 24.4713 7.669L19.7154 3.81582L16.7143 1.38411ZM6.11935 8.56904C4.90912 9.95958 3.85051 11.4855 2.9692 13.121L7.00997 14.1026L13.8253 15.7579C14.5216 14.639 15.3326 13.5986 16.2424 12.654L9.91333 10.1001L6.11935 8.56915V8.56904ZM2.54509 13.9446C1.73488 15.5928 1.10123 17.3434 0.668662 19.1721L4.80055 19.5624L11.8055 20.2239C12.1914 18.942 12.7112 17.7184 13.3485 16.5685L6.56616 14.9214L2.54509 13.9445V13.9446ZM1.27811 32.8323C1.86904 34.6024 2.6527 36.2844 3.60499 37.8528L7.24489 36.581L13.2421 34.4857C12.6153 33.3232 12.1079 32.0866 11.7365 30.7928L5.19479 32.0685L1.27801 32.8323H1.27811ZM0.0504307 26.5308C0.169173 28.407 0.495741 30.227 1.00679 31.9677L4.93129 31.2025L11.509 29.9197C11.2115 28.6545 11.043 27.3395 11.0171 25.9897L4.13071 26.3295L0.0504307 26.5308ZM7.73431 37.3638L4.09923 38.6338C5.11234 40.1713 6.29131 41.5897 7.61032 42.8642L10.8681 41.1665L16.0973 38.4415C15.1903 37.4784 14.3841 36.4193 13.6959 35.2807L7.73421 37.3638H7.73431ZM8.31004 43.5148C9.66032 44.7239 11.1434 45.788 12.7344 46.6821L15.5379 44.6555L19.8683 41.5251C18.7481 40.8299 17.7062 40.0202 16.7603 39.1114L11.5663 41.8179L8.31004 43.5148ZM4.59412 20.4475L0.476254 20.0586C0.164141 21.6344 0 23.2638 0 24.9314C0 25.1656 0.00353336 25.3989 0.00985058 25.6314L4.10287 25.4294L11.0208 25.088C11.0592 23.7186 11.2457 22.3861 11.5634 21.1055L4.59423 20.4475H4.59412ZM41.3716 6.18231C40.0358 5.01041 38.5737 3.97878 37.0083 3.11086L38.2715 6.15201L39.8243 9.8903C40.7584 10.4917 41.6346 11.1747 42.4445 11.9281L41.8896 8.95568L41.3717 6.18231H41.3716ZM14.3958 6.31048L10.9474 4.28661C9.42347 5.32124 8.02009 6.52023 6.76307 7.85777L10.5809 9.39831L16.9418 11.9652C17.8865 11.0816 18.9221 10.2941 20.0344 9.61984L14.3958 6.31058V6.31048ZM35.7656 2.46639C34.1874 1.70404 32.5164 1.10337 30.7744 0.685258L32.6877 3.65938L35.3426 7.78614C36.4549 8.13712 37.5223 8.58917 38.5339 9.13138L36.988 5.40968L35.7655 2.4665L35.7656 2.46639ZM23.0511 0.067348C21.2167 0.204292 19.4377 0.539962 17.7351 1.05251L20.7697 3.5112L25.5546 7.38815C26.7478 7.11705 27.9839 6.95997 29.2515 6.92892L25.521 2.80056L23.0511 0.067348ZM26.4669 2.50451L25.853 1.82525L25.2391 1.14588L24.6252 0.466618L24.2107 0.00770915C24.329 0.004497 24.4475 0.00171314 24.5659 0H25.3132C25.4251 0.00171314 25.5367 0.00396165 25.6483 0.00728086V0.00803037H25.6808C25.7491 0.0102789 25.8175 0.0123132 25.8858 0.0148829V0.0161678H25.9208C26.032 0.0206648 26.1431 0.0255901 26.2542 0.031372V0.0326568H26.2757C26.3174 0.0349053 26.3596 0.0371538 26.4014 0.0395094V0.0407943H26.4216C26.4613 0.0430428 26.5011 0.0455054 26.5408 0.0480751V0.0488246H26.5545C26.632 0.053857 26.709 0.0591035 26.7863 0.0646712V0.0650995H26.7919L26.8844 0.0721662V0.0732369H26.8994L26.9827 0.0798754V0.0813744H27.0017L27.0891 0.0889764V0.0897259H27.0989L27.1873 0.0974351V0.0979705H27.192C27.2478 0.102896 27.3036 0.108035 27.3592 0.113389V0.114245H27.3672L27.441 0.121526V0.122276H27.4505L27.5147 0.129021V0.13052H27.5306L27.5966 0.137587V0.138658H27.608L27.6784 0.146367V0.146795H27.6837L27.752 0.154504V0.155254H27.7572C27.8266 0.162963 27.8958 0.1711 27.9648 0.179452V0.179773H27.967L28.0222 0.186626V0.187911H28.0336L28.0876 0.194763V0.196048H28.0988L28.1531 0.203115V0.204078H28.1629L28.2185 0.211359V0.212216H28.2253L28.2839 0.220139V0.220674H28.2867C28.3459 0.228598 28.4049 0.236735 28.464 0.245087H28.4642L28.5213 0.253331H28.5215L28.5704 0.260398V0.261362H28.5779L28.6277 0.268642V0.269499H28.6333L28.685 0.277208V0.277958H28.688L28.7341 0.28481V0.286095H28.7414L28.7914 0.29359V0.29434H28.7946L28.8404 0.301406V0.30237H28.8469L28.8978 0.310615H28.8985C28.9474 0.318538 28.9961 0.326461 29.0451 0.334384V0.335241H29.0489L29.0942 0.342736V0.343378H29.098L29.1431 0.350873V0.351623H29.1463L29.1923 0.359332V0.35976H29.194L29.2333 0.366613V0.367898H29.2412L29.2825 0.374965V0.376035H29.288L29.3313 0.383744V0.384173H29.3343L29.4214 0.399912V0.400662H29.4251C29.4612 0.407193 29.4972 0.413724 29.5333 0.42047L31.4044 3.32885L34.0408 7.42723C32.8895 7.15441 31.6971 6.98867 30.4743 6.93952L26.7179 2.78236L26.4665 2.50419L26.4669 2.50451ZM45.9777 11.5511C44.9749 9.97725 43.8003 8.52364 42.4807 7.21641L43.0223 10.117L43.5739 13.0702C44.3014 13.8733 44.9594 14.7399 45.5402 15.6603L45.7375 13.8056L45.9777 11.551V11.5511ZM32.3294 48.7505C33.9262 48.2553 35.454 47.6039 36.8957 46.814L37.6808 44.4853L38.4679 42.1515C37.4069 42.7147 36.2853 43.1788 35.115 43.5312L33.6211 46.3301L32.3293 48.7505H32.3294ZM42.9214 42.1985C43.9746 41.1017 44.9287 39.9089 45.7687 38.6346L45.6232 36.6689L45.5429 35.5833C44.9393 36.5406 44.2516 37.4393 43.4899 38.2689L43.2533 39.9037L42.9214 42.1984V42.1985ZM26.0572 49.8402C27.7998 49.7629 29.4957 49.5073 31.1274 49.0903L32.4022 46.7018L33.9253 43.8483C32.7312 44.123 31.4936 44.2833 30.2244 44.3174L27.8555 47.4568L26.0571 49.8402H26.0572ZM21.9811 47.0524L19.6708 49.3088C21.3601 49.6717 23.113 49.8638 24.9104 49.8655L26.6964 47.4984L29.0995 44.3135C27.7982 44.2714 26.5308 44.0964 25.3102 43.8018L21.9814 47.0523L21.9811 47.0524ZM38.0788 46.123C39.4316 45.2823 40.6977 44.3155 41.8613 43.2393L42.1789 41.043L42.4253 39.3379C41.5702 40.1309 40.6408 40.8451 39.6485 41.4686L38.8846 43.734L38.0788 46.1231V46.123ZM13.6169 47.1549C15.1991 47.9625 16.8791 48.6056 18.6342 49.0625L20.9371 46.8134L24.3014 43.5281C23.0459 43.1493 21.8462 42.6423 20.7175 42.0218L16.4232 45.1262L13.6168 47.1549H13.6169Z" fill="white"/>
<path fill-rule="evenodd" clip-rule="evenodd" d="M43.4927 38.2638L43.2562 39.8987C44.1386 38.8958 44.9328 37.8139 45.6261 36.6638L45.5458 35.5781C44.9422 36.5354 44.2545 37.4341 43.4927 38.2637V38.2638ZM39.6515 41.4635L38.8877 43.7288C40.0706 42.9368 41.1732 42.0349 42.1819 41.0378L42.4283 39.3327C41.5732 40.1257 40.6439 40.8399 39.6515 41.4635ZM35.1181 43.5262L33.6241 46.325C35.0472 45.8443 36.4055 45.2236 37.684 44.4803L38.4711 42.1465C37.4101 42.7097 36.2884 43.1738 35.1181 43.5262ZM30.2274 44.3125L27.8585 47.4519C29.4232 47.3558 30.944 47.0988 32.4051 46.697L33.9282 43.8434C32.7342 44.1182 31.4965 44.2785 30.2273 44.3126L30.2274 44.3125ZM25.313 43.7969L21.9842 47.0474C23.4312 47.3417 24.9291 47.4963 26.4631 47.4963C26.5421 47.4963 26.6207 47.4942 26.6992 47.4933L29.1024 44.3085C27.8012 44.2664 26.5338 44.0915 25.3131 43.7968L25.313 43.7969ZM20.7205 42.0168L16.4262 45.1213C17.8505 45.838 19.3616 46.4075 20.9401 46.8086L24.3044 43.5233C23.0489 43.1444 21.8493 42.6375 20.7205 42.017V42.0168ZM16.7632 39.1063L11.5692 41.8128C12.7817 42.8962 14.1127 43.8493 15.5408 44.6504L19.8712 41.5199C18.7509 40.8247 17.7091 40.0151 16.7632 39.1063ZM13.699 35.2756L7.73724 37.3587C8.64071 38.7399 9.69279 40.0149 10.871 41.1614L16.1003 38.4364C15.1932 37.4733 14.387 36.4142 13.6989 35.2756H13.699ZM11.7395 30.7876L5.19782 32.0633C5.7153 33.6532 6.40602 35.1649 7.24781 36.576L13.2449 34.4806C12.6182 33.3181 12.1108 32.0816 11.7394 30.7877L11.7395 30.7876ZM11.0201 25.9846L4.13364 26.3243C4.22165 28.0046 4.49532 29.6354 4.93421 31.1975L11.5119 29.9148C11.2144 28.6494 11.046 27.3344 11.0201 25.9847V25.9846ZM11.5662 21.1004L4.59704 20.4424C4.27379 21.9557 4.10205 23.5255 4.10205 25.1354C4.10205 25.232 4.10441 25.328 4.1058 25.4241L11.0237 25.0827C11.0621 23.7133 11.2486 22.3808 11.5663 21.1003L11.5662 21.1004ZM13.3514 16.5635L6.56909 14.9163C5.81723 16.3772 5.22116 17.9314 4.80348 19.5573L11.8083 20.2188C12.1943 18.937 12.7141 17.7133 13.3514 16.5635ZM16.2455 12.6487L9.91636 10.0947C8.80795 11.3134 7.83307 12.6557 7.013 14.0974L13.8283 15.7527C14.5246 14.6337 15.3357 13.5934 16.2455 12.6487ZM20.0374 9.61464L14.3987 6.30527C13.0149 7.19365 11.7363 8.23085 10.5838 9.39311L16.9447 11.96C17.8894 11.0765 18.925 10.2889 20.0373 9.61475L20.0374 9.61464ZM45.5433 15.6552L45.7407 13.8005C44.9615 12.4779 44.051 11.2418 43.0254 10.1119L43.5771 13.0651C44.3045 13.8682 44.9626 14.7348 45.5433 15.6552ZM42.4476 11.9228L41.8926 8.95037C40.7885 7.89753 39.5759 6.95788 38.2747 6.14681L39.8274 9.885C40.7615 10.4864 41.6377 11.1694 42.4477 11.9228H42.4476ZM38.5371 9.12597L36.9912 5.40427C35.6352 4.67929 34.1959 4.08964 32.6909 3.65418L35.3458 7.78093C36.458 8.13181 37.5255 8.58386 38.5371 9.12607V9.12597ZM34.0444 7.42235L31.4079 3.32397C29.8978 2.98317 28.3302 2.79579 26.7214 2.77759L30.4778 6.93464C31.7006 6.98389 32.8931 7.14953 34.0444 7.42235ZM29.2547 6.92372L25.5242 2.79536C23.889 2.86292 22.299 3.10544 20.7729 3.5061L25.5577 7.38295C26.7509 7.11184 27.987 6.95477 29.2547 6.92383V6.92372ZM24.4743 7.6638L19.7184 3.81051C18.1549 4.30464 16.6654 4.9657 15.2713 5.77324L20.9419 9.10155C22.0571 8.50784 23.2393 8.02377 24.4743 7.6639V7.6638Z" fill="#FECC00"/>
<path fill-rule="evenodd" clip-rule="evenodd" d="M43.4927 38.2638L43.2562 39.8987C44.1386 38.8958 44.9328 37.8139 45.6261 36.6638L45.5458 35.5781C44.9422 36.5354 44.2545 37.4341 43.4927 38.2637V38.2638ZM39.6515 41.4635L38.8877 43.7288C40.0706 42.9368 41.1732 42.0349 42.1819 41.0378L42.4283 39.3327C41.5732 40.1257 40.6439 40.8399 39.6515 41.4635ZM35.1181 43.5262L33.6241 46.325C35.0472 45.8443 36.4055 45.2236 37.684 44.4803L38.4711 42.1465C37.4101 42.7097 36.2884 43.1738 35.1181 43.5262ZM30.2274 44.3125L27.8585 47.4519C29.4232 47.3558 30.944 47.0988 32.4051 46.697L33.9282 43.8434C32.7342 44.1182 31.4965 44.2785 30.2273 44.3126L30.2274 44.3125ZM25.313 43.7969L21.9842 47.0474C23.4312 47.3417 24.9291 47.4963 26.4631 47.4963C26.5421 47.4963 26.6207 47.4942 26.6992 47.4933L29.1024 44.3085C27.8012 44.2664 26.5338 44.0915 25.3131 43.7968L25.313 43.7969ZM20.7205 42.0168L16.4262 45.1213C17.8505 45.838 19.3616 46.4075 20.9401 46.8086L24.3044 43.5233C23.0489 43.1444 21.8493 42.6375 20.7205 42.017V42.0168ZM16.7632 39.1063L11.5692 41.8128C12.7817 42.8962 14.1127 43.8493 15.5408 44.6504L19.8712 41.5199C18.7509 40.8247 17.7091 40.0151 16.7632 39.1063ZM13.699 35.2756L7.73724 37.3587C8.64071 38.7399 9.69279 40.0149 10.871 41.1614L16.1003 38.4364C15.1932 37.4733 14.387 36.4142 13.6989 35.2756H13.699ZM11.7395 30.7876L5.19782 32.0633C5.7153 33.6532 6.40602 35.1649 7.24781 36.576L13.2449 34.4806C12.6182 33.3181 12.1108 32.0816 11.7394 30.7877L11.7395 30.7876ZM11.0201 25.9846L4.13364 26.3243C4.22165 28.0046 4.49532 29.6354 4.93421 31.1975L11.5119 29.9148C11.2144 28.6494 11.046 27.3344 11.0201 25.9847V25.9846ZM11.5662 21.1004L4.59704 20.4424C4.27379 21.9557 4.10205 23.5255 4.10205 25.1354C4.10205 25.232 4.10441 25.328 4.1058 25.4241L11.0237 25.0827C11.0621 23.7133 11.2486 22.3808 11.5663 21.1003L11.5662 21.1004ZM13.3514 16.5635L6.56909 14.9163C5.81723 16.3772 5.22116 17.9314 4.80348 19.5573L11.8083 20.2188C12.1943 18.937 12.7141 17.7133 13.3514 16.5635ZM16.2455 12.6487L9.91636 10.0947C8.80795 11.3134 7.83307 12.6557 7.013 14.0974L13.8283 15.7527C14.5246 14.6337 15.3357 13.5934 16.2455 12.6487ZM20.0374 9.61464L14.3987 6.30527C13.0149 7.19365 11.7363 8.23085 10.5838 9.39311L16.9447 11.96C17.8894 11.0765 18.925 10.2889 20.0373 9.61475L20.0374 9.61464ZM45.5433 15.6552L45.7407 13.8005C44.9615 12.4779 44.051 11.2418 43.0254 10.1119L43.5771 13.0651C44.3045 13.8682 44.9626 14.7348 45.5433 15.6552ZM42.4476 11.9228L41.8926 8.95037C40.7885 7.89753 39.5759 6.95788 38.2747 6.14681L39.8274 9.885C40.7615 10.4864 41.6377 11.1694 42.4477 11.9228H42.4476ZM38.5371 9.12597L36.9912 5.40427C35.6352 4.67929 34.1959 4.08964 32.6909 3.65418L35.3458 7.78093C36.458 8.13181 37.5255 8.58386 38.5371 9.12607V9.12597ZM34.0444 7.42235L31.4079 3.32397C29.8978 2.98317 28.3302 2.79579 26.7214 2.77759L30.4778 6.93464C31.7006 6.98389 32.8931 7.14953 34.0444 7.42235ZM29.2547 6.92372L25.5242 2.79536C23.889 2.86292 22.299 3.10544 20.7729 3.5061L25.5577 7.38295C26.7509 7.11184 27.987 6.95477 29.2547 6.92383V6.92372ZM24.4743 7.6638L19.7184 3.81051C18.1549 4.30464 16.6654 4.9657 15.2713 5.77324L20.9419 9.10155C22.0571 8.50784 23.2393 8.02377 24.4743 7.6639V7.6638Z" fill="white"/>
<path fill-rule="evenodd" clip-rule="evenodd" d="M43.4927 38.2638L43.2562 39.8987C44.1386 38.8958 44.9328 37.8139 45.6261 36.6638L45.5458 35.5781C44.9422 36.5354 44.2545 37.4341 43.4927 38.2637V38.2638ZM39.6515 41.4635L38.8877 43.7288C40.0706 42.9368 41.1732 42.0349 42.1819 41.0378L42.4283 39.3327C41.5732 40.1257 40.6439 40.8399 39.6515 41.4635ZM35.1181 43.5262L33.6241 46.325C35.0472 45.8443 36.4055 45.2236 37.684 44.4803L38.4711 42.1465C37.4101 42.7097 36.2884 43.1738 35.1181 43.5262ZM30.2274 44.3125L27.8585 47.4519C29.4232 47.3558 30.944 47.0988 32.4051 46.697L33.9282 43.8434C32.7342 44.1182 31.4965 44.2785 30.2273 44.3126L30.2274 44.3125ZM25.313 43.7969L21.9842 47.0474C23.4312 47.3417 24.9291 47.4963 26.4631 47.4963C26.5421 47.4963 26.6207 47.4942 26.6992 47.4933L29.1024 44.3085C27.8012 44.2664 26.5338 44.0915 25.3131 43.7968L25.313 43.7969ZM20.7205 42.0168L16.4262 45.1213C17.8505 45.838 19.3616 46.4075 20.9401 46.8086L24.3044 43.5233C23.0489 43.1444 21.8493 42.6375 20.7205 42.017V42.0168ZM16.7632 39.1063L11.5692 41.8128C12.7817 42.8962 14.1127 43.8493 15.5408 44.6504L19.8712 41.5199C18.7509 40.8247 17.7091 40.0151 16.7632 39.1063ZM13.699 35.2756L7.73724 37.3587C8.64071 38.7399 9.69279 40.0149 10.871 41.1614L16.1003 38.4364C15.1932 37.4733 14.387 36.4142 13.6989 35.2756H13.699ZM11.7395 30.7876L5.19782 32.0633C5.7153 33.6532 6.40602 35.1649 7.24781 36.576L13.2449 34.4806C12.6182 33.3181 12.1108 32.0816 11.7394 30.7877L11.7395 30.7876ZM11.0201 25.9846L4.13364 26.3243C4.22165 28.0046 4.49532 29.6354 4.93421 31.1975L11.5119 29.9148C11.2144 28.6494 11.046 27.3344 11.0201 25.9847V25.9846ZM11.5662 21.1004L4.59704 20.4424C4.27379 21.9557 4.10205 23.5255 4.10205 25.1354C4.10205 25.232 4.10441 25.328 4.1058 25.4241L11.0237 25.0827C11.0621 23.7133 11.2486 22.3808 11.5663 21.1003L11.5662 21.1004ZM13.3514 16.5635L6.56909 14.9163C5.81723 16.3772 5.22116 17.9314 4.80348 19.5573L11.8083 20.2188C12.1943 18.937 12.7141 17.7133 13.3514 16.5635ZM16.2455 12.6487L9.91636 10.0947C8.80795 11.3134 7.83307 12.6557 7.013 14.0974L13.8283 15.7527C14.5246 14.6337 15.3357 13.5934 16.2455 12.6487ZM20.0374 9.61464L14.3987 6.30527C13.0149 7.19365 11.7363 8.23085 10.5838 9.39311L16.9447 11.96C17.8894 11.0765 18.925 10.2889 20.0373 9.61475L20.0374 9.61464ZM45.5433 15.6552L45.7407 13.8005C44.9615 12.4779 44.051 11.2418 43.0254 10.1119L43.5771 13.0651C44.3045 13.8682 44.9626 14.7348 45.5433 15.6552ZM42.4476 11.9228L41.8926 8.95037C40.7885 7.89753 39.5759 6.95788 38.2747 6.14681L39.8274 9.885C40.7615 10.4864 41.6377 11.1694 42.4477 11.9228H42.4476ZM38.5371 9.12597L36.9912 5.40427C35.6352 4.67929 34.1959 4.08964 32.6909 3.65418L35.3458 7.78093C36.458 8.13181 37.5255 8.58386 38.5371 9.12607V9.12597ZM34.0444 7.42235L31.4079 3.32397C29.8978 2.98317 28.3302 2.79579 26.7214 2.77759L30.4778 6.93464C31.7006 6.98389 32.8931 7.14953 34.0444 7.42235ZM29.2547 6.92372L25.5242 2.79536C23.889 2.86292 22.299 3.10544 20.7729 3.5061L25.5577 7.38295C26.7509 7.11184 27.987 6.95477 29.2547 6.92383V6.92372ZM24.4743 7.6638L19.7184 3.81051C18.1549 4.30464 16.6654 4.9657 15.2713 5.77324L20.9419 9.10155C22.0571 8.50784 23.2393 8.02377 24.4743 7.6639V7.6638Z" stroke="#FEFEFE" stroke-width="0.0762349" stroke-miterlimit="22.9256"/>
<path d="M17.7192 26.3417V18.5296H19.7497L23.4677 23.306H23.4901V18.5296H25.5209V26.3417H23.4901L19.7704 21.5549H19.7497V26.3417H17.7192ZM36.6266 24.9844H33.8309L33.2923 26.3417H31.1371L34.1402 18.5296H36.3591L39.3016 26.3417H37.1362L36.6267 24.9844H36.6266ZM36.0775 23.4302L35.2503 20.9434H35.2315L34.3904 23.4302H36.0775ZM48.0349 20.2495V26.3417H46.0041V20.2495H44.3273V18.5296H49.7134V20.2495H48.0349ZM57.4728 18.5296V26.3417H55.4421V18.5296H57.4728ZM67.7206 18.2705C68.28 18.2705 68.8206 18.369 69.3402 18.5657C69.8617 18.761 70.3245 19.0406 70.7303 19.4033C71.1361 19.7644 71.4557 20.1924 71.6888 20.6848C71.9219 21.1787 72.0393 21.7139 72.0393 22.2907C72.0393 22.909 71.9338 23.484 71.7214 24.0174C71.5107 24.5494 71.2104 25.0085 70.8201 25.3954C70.4316 25.7823 69.9721 26.0792 69.4438 26.2883C68.9154 26.497 68.3404 26.6009 67.7205 26.6009C67.0987 26.6009 66.5256 26.4971 65.9969 26.2883C65.4703 26.0792 65.011 25.7806 64.6189 25.3919C64.2272 25.0019 63.9249 24.5423 63.7143 24.0123C63.5036 23.484 63.3983 22.909 63.3983 22.2907C63.3983 21.7139 63.5157 21.1786 63.7488 20.6848C63.9819 20.1924 64.3015 19.7644 64.7073 19.4033C65.113 19.0407 65.5758 18.761 66.0992 18.5657C66.6222 18.369 67.1628 18.2705 67.7206 18.2705ZM67.7206 20.2392C67.3269 20.2392 66.9608 20.3357 66.6205 20.5275C66.2822 20.7191 66.0111 20.9749 65.8125 21.2926C65.612 21.6102 65.5121 21.9472 65.5121 22.3028C65.5121 22.743 65.6103 23.1404 65.809 23.4961C66.0078 23.8518 66.2752 24.1316 66.6136 24.3317C66.9522 24.5322 67.3199 24.6323 67.7207 24.6323C68.1211 24.6323 68.4907 24.5322 68.8275 24.3301C69.166 24.1281 69.4319 23.8502 69.6306 23.4962C69.8274 23.1405 69.9259 22.7431 69.9259 22.3029C69.9259 21.9473 69.8257 21.6103 69.627 21.2927C69.4286 20.9751 69.1591 20.7193 68.8207 20.5276C68.4822 20.3359 68.1144 20.2393 67.7207 20.2393L67.7206 20.2392ZM77.9751 26.3418V18.5297H80.0056L83.7236 23.3061H83.746V18.5297H85.7768V26.3418H83.746L80.0263 21.555H80.0056V26.3418H77.9751ZM96.8825 24.9845H94.0868L93.5482 26.3418H91.393L94.3961 18.5297H96.615L99.5576 26.3418H97.3921L96.8826 24.9845H96.8825ZM96.3334 23.4303L95.5062 20.9435H95.4874L94.6463 23.4303H96.3334ZM107.213 18.5297V24.6219H109.648V26.3418H105.183V18.5297H107.213Z" fill="#FECC00"/>
<path d="M17.7192 26.3417V18.5296H19.7497L23.4677 23.306H23.4901V18.5296H25.5209V26.3417H23.4901L19.7704 21.5549H19.7497V26.3417H17.7192ZM36.6266 24.9844H33.8309L33.2923 26.3417H31.1371L34.1402 18.5296H36.3591L39.3016 26.3417H37.1362L36.6267 24.9844H36.6266ZM36.0775 23.4302L35.2503 20.9434H35.2315L34.3904 23.4302H36.0775ZM48.0349 20.2495V26.3417H46.0041V20.2495H44.3273V18.5296H49.7134V20.2495H48.0349ZM57.4728 18.5296V26.3417H55.4421V18.5296H57.4728ZM67.7206 18.2705C68.28 18.2705 68.8206 18.369 69.3402 18.5657C69.8617 18.761 70.3245 19.0406 70.7303 19.4033C71.1361 19.7644 71.4557 20.1924 71.6888 20.6848C71.9219 21.1787 72.0393 21.7139 72.0393 22.2907C72.0393 22.909 71.9338 23.484 71.7214 24.0174C71.5107 24.5494 71.2104 25.0085 70.8201 25.3954C70.4316 25.7823 69.9721 26.0792 69.4438 26.2883C68.9154 26.497 68.3404 26.6009 67.7205 26.6009C67.0987 26.6009 66.5256 26.4971 65.9969 26.2883C65.4703 26.0792 65.011 25.7806 64.6189 25.3919C64.2272 25.0019 63.9249 24.5423 63.7143 24.0123C63.5036 23.484 63.3983 22.909 63.3983 22.2907C63.3983 21.7139 63.5157 21.1786 63.7488 20.6848C63.9819 20.1924 64.3015 19.7644 64.7073 19.4033C65.113 19.0407 65.5758 18.761 66.0992 18.5657C66.6222 18.369 67.1628 18.2705 67.7206 18.2705ZM67.7206 20.2392C67.3269 20.2392 66.9608 20.3357 66.6205 20.5275C66.2822 20.7191 66.0111 20.9749 65.8125 21.2926C65.612 21.6102 65.5121 21.9472 65.5121 22.3028C65.5121 22.743 65.6103 23.1404 65.809 23.4961C66.0078 23.8518 66.2752 24.1316 66.6136 24.3317C66.9522 24.5322 67.3199 24.6323 67.7207 24.6323C68.1211 24.6323 68.4907 24.5322 68.8275 24.3301C69.166 24.1281 69.4319 23.8502 69.6306 23.4962C69.8274 23.1405 69.9259 22.7431 69.9259 22.3029C69.9259 21.9473 69.8257 21.6103 69.627 21.2927C69.4286 20.9751 69.1591 20.7193 68.8207 20.5276C68.4822 20.3359 68.1144 20.2393 67.7207 20.2393L67.7206 20.2392ZM77.9751 26.3418V18.5297H80.0056L83.7236 23.3061H83.746V18.5297H85.7768V26.3418H83.746L80.0263 21.555H80.0056V26.3418H77.9751ZM96.8825 24.9845H94.0868L93.5482 26.3418H91.393L94.3961 18.5297H96.615L99.5576 26.3418H97.3921L96.8826 24.9845H96.8825ZM96.3334 23.4303L95.5062 20.9435H95.4874L94.6463 23.4303H96.3334ZM107.213 18.5297V24.6219H109.648V26.3418H105.183V18.5297H107.213Z" fill="white"/>
<path d="M17.7192 26.3417V18.5296H19.7497L23.4677 23.306H23.4901V18.5296H25.5209V26.3417H23.4901L19.7704 21.5549H19.7497V26.3417H17.7192ZM36.6266 24.9844H33.8309L33.2923 26.3417H31.1371L34.1402 18.5296H36.3591L39.3016 26.3417H37.1362L36.6267 24.9844H36.6266ZM36.0775 23.4302L35.2503 20.9434H35.2315L34.3904 23.4302H36.0775ZM48.0349 20.2495V26.3417H46.0041V20.2495H44.3273V18.5296H49.7134V20.2495H48.0349ZM57.4728 18.5296V26.3417H55.4421V18.5296H57.4728ZM67.7206 18.2705C68.28 18.2705 68.8206 18.369 69.3402 18.5657C69.8617 18.761 70.3245 19.0406 70.7303 19.4033C71.1361 19.7644 71.4557 20.1924 71.6888 20.6848C71.9219 21.1787 72.0393 21.7139 72.0393 22.2907C72.0393 22.909 71.9338 23.484 71.7214 24.0174C71.5107 24.5494 71.2104 25.0085 70.8201 25.3954C70.4316 25.7823 69.9721 26.0792 69.4438 26.2883C68.9154 26.497 68.3404 26.6009 67.7205 26.6009C67.0987 26.6009 66.5256 26.4971 65.9969 26.2883C65.4703 26.0792 65.011 25.7806 64.6189 25.3919C64.2272 25.0019 63.9249 24.5423 63.7143 24.0123C63.5036 23.484 63.3983 22.909 63.3983 22.2907C63.3983 21.7139 63.5157 21.1786 63.7488 20.6848C63.9819 20.1924 64.3015 19.7644 64.7073 19.4033C65.113 19.0407 65.5758 18.761 66.0992 18.5657C66.6222 18.369 67.1628 18.2705 67.7206 18.2705ZM67.7206 20.2392C67.3269 20.2392 66.9608 20.3357 66.6205 20.5275C66.2822 20.7191 66.0111 20.9749 65.8125 21.2926C65.612 21.6102 65.5121 21.9472 65.5121 22.3028C65.5121 22.743 65.6103 23.1404 65.809 23.4961C66.0078 23.8518 66.2752 24.1316 66.6136 24.3317C66.9522 24.5322 67.3199 24.6323 67.7207 24.6323C68.1211 24.6323 68.4907 24.5322 68.8275 24.3301C69.166 24.1281 69.4319 23.8502 69.6306 23.4962C69.8274 23.1405 69.9259 22.7431 69.9259 22.3029C69.9259 21.9473 69.8257 21.6103 69.627 21.2927C69.4286 20.9751 69.1591 20.7193 68.8207 20.5276C68.4822 20.3359 68.1144 20.2393 67.7207 20.2393L67.7206 20.2392ZM77.9751 26.3418V18.5297H80.0056L83.7236 23.3061H83.746V18.5297H85.7768V26.3418H83.746L80.0263 21.555H80.0056V26.3418H77.9751ZM96.8825 24.9845H94.0868L93.5482 26.3418H91.393L94.3961 18.5297H96.615L99.5576 26.3418H97.3921L96.8826 24.9845H96.8825ZM96.3334 23.4303L95.5062 20.9435H95.4874L94.6463 23.4303H96.3334ZM107.213 18.5297V24.6219H109.648V26.3418H105.183V18.5297H107.213Z" stroke="#FEFEFE" stroke-width="0.0762349" stroke-miterlimit="22.9256"/>
<path d="M20.6103 29.7902L20.0812 30.1369C19.9575 29.9152 19.8155 29.7499 19.6566 29.6396C19.4966 29.5307 19.2968 29.4756 19.0566 29.4756C18.8831 29.4756 18.7205 29.5158 18.568 29.5965C18.4159 29.6773 18.2949 29.7901 18.2056 29.934C18.1163 30.0778 18.0718 30.239 18.0718 30.4192C18.0718 30.5805 18.1177 30.7203 18.2108 30.8398C18.3026 30.9596 18.4118 31.0564 18.5377 31.1317C18.6626 31.2069 18.8175 31.2862 19.0011 31.3696L19.3952 31.5498C19.6935 31.6813 19.9442 31.8184 20.1466 31.9583C20.35 32.098 20.5143 32.2728 20.6365 32.4825C20.7597 32.6921 20.8216 32.9515 20.8216 33.2582C20.8216 33.6035 20.7388 33.9209 20.572 34.2098C20.4052 34.4989 20.1765 34.7261 19.8891 34.8901C19.6017 35.0555 19.2888 35.1375 18.9527 35.1375C18.6404 35.1375 18.3553 35.0729 18.0965 34.9424C17.839 34.812 17.6238 34.628 17.4531 34.3901C17.2824 34.1535 17.1654 33.8779 17.1025 33.5648L17.7486 33.3778C17.7945 33.6977 17.9272 33.9666 18.1452 34.1829C18.3632 34.3995 18.6271 34.5084 18.9385 34.5084C19.1484 34.5084 19.3482 34.4572 19.5371 34.3536C19.7263 34.25 19.8774 34.109 19.9903 33.9276C20.1032 33.746 20.1599 33.5445 20.1599 33.3227C20.1599 33.1036 20.1111 32.9207 20.0126 32.7731C19.9143 32.625 19.7935 32.5069 19.6476 32.4167C19.5031 32.3267 19.3085 32.2259 19.0645 32.1129L18.7007 31.9516C18.4314 31.8279 18.2042 31.7014 18.0204 31.5724C17.8364 31.442 17.6895 31.2822 17.5778 31.0914C17.4659 30.9005 17.4096 30.6691 17.4096 30.3963C17.4096 30.1651 17.4542 29.9527 17.5437 29.7605C17.6327 29.5682 17.7549 29.4042 17.9086 29.2685C18.0636 29.1329 18.2408 29.0281 18.4394 28.9553C18.6375 28.8829 18.8489 28.8465 19.0721 28.8465C19.2929 28.8465 19.5002 28.8843 19.6934 28.9581C19.8879 29.032 20.0625 29.1395 20.22 29.2819C20.3776 29.4244 20.5077 29.5939 20.6101 29.7901L20.6103 29.7902ZM25.0136 33.2743H22.1058C22.1072 33.5067 22.1597 33.7192 22.2636 33.9128C22.3672 34.1064 22.5116 34.2595 22.6957 34.3725C22.8794 34.4839 23.087 34.5405 23.3192 34.5405C23.7896 34.5405 24.1652 34.2796 24.4461 33.758L24.9817 34.074C24.8032 34.4154 24.567 34.6776 24.274 34.8617C23.981 35.0458 23.6477 35.1374 23.2719 35.1374C22.912 35.1374 22.5958 35.0512 22.3199 34.8792C22.0453 34.7073 21.8327 34.472 21.6843 34.1737C21.5347 33.8764 21.4599 33.5471 21.4599 33.1856C21.4599 32.8093 21.5293 32.4638 21.6698 32.1518C21.8103 31.8402 22.0165 31.5927 22.2898 31.4113C22.5616 31.2287 22.8845 31.1371 23.2562 31.1371C23.6242 31.1371 23.9403 31.2297 24.206 31.4139C24.471 31.598 24.6719 31.8521 24.8085 32.1763C24.9451 32.5003 25.0136 32.8658 25.0136 33.2744V33.2743ZM22.1385 32.7257H24.3501C24.3227 32.5471 24.257 32.3817 24.1534 32.2284C24.0497 32.0739 23.9209 31.9541 23.7661 31.8654C23.6111 31.7782 23.4429 31.7339 23.2643 31.7339C22.9923 31.7339 22.7466 31.8305 22.5261 32.0241C22.3068 32.2178 22.177 32.4517 22.1385 32.7257ZM28.6303 31.5149V32.3697H28.6147C28.2861 31.9464 27.9026 31.7339 27.4642 31.7339C27.2157 31.7339 26.9912 31.7969 26.7918 31.9248C26.5922 32.0525 26.4371 32.2232 26.3241 32.4384C26.2128 32.6533 26.1562 32.8858 26.1562 33.1356C26.1562 33.3872 26.2085 33.6198 26.3149 33.8347C26.4198 34.0485 26.5712 34.2206 26.7668 34.3482C26.9624 34.4758 27.1843 34.5405 27.4311 34.5405C27.9104 34.5405 28.3123 34.3227 28.6381 33.8873H28.6526V34.7514C28.2809 35.0083 27.8895 35.1373 27.4798 35.1373C27.1135 35.1373 26.7785 35.0497 26.478 34.8764C26.1758 34.7015 25.9394 34.4622 25.7672 34.1558C25.5953 33.8507 25.51 33.5108 25.51 33.1355C25.51 32.7687 25.599 32.4315 25.7764 32.1261C25.9538 31.8197 26.1939 31.5777 26.4989 31.4016C26.802 31.2256 27.1317 31.1369 27.4879 31.1369C27.9052 31.1369 28.2861 31.2631 28.6303 31.5147V31.5149ZM30.214 31.2419V33.3549C30.214 33.6076 30.2324 33.8159 30.2693 33.9828C30.306 34.1479 30.386 34.2825 30.5094 34.3861C30.6328 34.4893 30.8127 34.5406 31.0506 34.5406C31.2882 34.5406 31.4695 34.4893 31.5916 34.3861C31.7135 34.2825 31.7928 34.1479 31.8292 33.9828C31.8662 33.8159 31.8845 33.6076 31.8845 33.3549V31.2419H32.5147V33.4276C32.5147 34.5674 32.0264 35.1375 31.0506 35.1375C30.072 35.1375 29.5834 34.5675 29.5834 33.4276V31.2419H30.214ZM34.2644 31.2419V31.653H34.2798C34.4113 31.4731 34.5347 31.3427 34.6475 31.2607C34.762 31.1787 34.9128 31.137 35.0994 31.137C35.2755 31.137 35.4647 31.196 35.668 31.3144L35.3672 31.9032C35.2779 31.8387 35.2096 31.7944 35.1651 31.77C35.1203 31.7459 35.0613 31.7339 34.9877 31.7339C34.6869 31.7339 34.4901 31.8722 34.3992 32.1479C34.3088 32.4249 34.2643 32.754 34.2643 33.1357V35.0325H33.6337V31.2419H34.2643H34.2644ZM37.0536 31.2419V35.0325H36.4234V31.2419H37.0536ZM36.7396 29.3547C36.8618 29.3547 36.9669 29.4003 37.055 29.4904C37.1443 29.5804 37.1889 29.6894 37.1889 29.8155C37.1889 29.9446 37.1443 30.0533 37.055 30.1421C36.9669 30.2297 36.8619 30.2739 36.7396 30.2739C36.6178 30.2739 36.5113 30.2297 36.422 30.1395C36.3327 30.0509 36.288 29.942 36.288 29.8155C36.288 29.6919 36.3342 29.5844 36.4235 29.4928C36.5139 29.4002 36.6191 29.3546 36.7397 29.3546L36.7396 29.3547ZM39.0314 31.8387V35.0325H38.4012V31.8387H38.0148V31.2419H38.4012V29.8788H39.0314V31.2419H39.6933V31.8387H39.0314ZM41.348 34.679L39.646 31.2419H40.3789L41.6869 33.9599L42.8846 31.2419H43.6016L40.8672 37.1615H40.1504L41.3479 34.679H41.348ZM49.9053 31.0645L49.9604 31.024C50.047 30.9568 50.1351 30.8883 50.2258 30.8186C50.3175 30.7487 50.3978 30.6759 50.4661 30.6034C50.5355 30.531 50.5921 30.4476 50.6354 30.3521C50.6788 30.2581 50.7009 30.1545 50.7009 30.0415C50.7009 29.8588 50.6382 29.7095 50.5107 29.594C50.3834 29.4771 50.2325 29.4192 50.0551 29.4192C49.8738 29.4192 49.7201 29.4838 49.5925 29.6129C49.4656 29.7419 49.4011 29.9006 49.4011 30.0886C49.4011 30.1586 49.4118 30.2271 49.4339 30.297C49.4548 30.3671 49.4826 30.4299 49.5138 30.4866C49.5454 30.5445 49.5808 30.6021 49.6229 30.6626C49.6649 30.7219 49.7109 30.789 49.762 30.8616L49.9053 31.0647V31.0645ZM52.1035 35.0324L51.4653 34.1775C51.1436 34.4734 50.8323 34.7072 50.5276 34.8792C50.2242 35.0512 49.9038 35.1374 49.5663 35.1374C49.2655 35.1374 48.982 35.066 48.7153 34.9222C48.4475 34.7783 48.2334 34.5794 48.0731 34.3253C47.913 34.0714 47.8327 33.7877 47.8327 33.4759C47.8327 33.1586 47.8985 32.8829 48.0287 32.6479C48.1584 32.4125 48.3214 32.2136 48.5158 32.0485C48.7114 31.8845 48.9688 31.6936 49.2907 31.477L49.3601 31.4272C49.3075 31.3507 49.242 31.2565 49.1633 31.145C49.0844 31.0321 49.0161 30.9217 48.9581 30.8117C48.8991 30.7026 48.8532 30.5913 48.8201 30.477C48.7875 30.3641 48.7707 30.2512 48.7707 30.1381C48.7707 29.8869 48.827 29.6635 48.9396 29.4675C49.0527 29.2713 49.2077 29.1193 49.4059 29.0105C49.6043 28.9016 49.8262 28.8464 50.0705 28.8464C50.2949 28.8464 50.504 28.8976 50.6971 28.9984C50.8899 29.1006 51.0435 29.2429 51.1594 29.4258C51.2736 29.6074 51.3313 29.8131 51.3313 30.0414C51.3313 30.2647 51.2839 30.4647 51.188 30.6421C51.0923 30.8185 50.9809 30.9676 50.8522 31.0871C50.7232 31.2055 50.534 31.3627 50.2834 31.5575L51.5362 33.1935L52.2062 32.3965L52.6867 32.7969L51.9316 33.7017L52.9388 35.0323H52.1036L52.1035 35.0324ZM49.7475 31.9273L49.464 32.1209C49.1488 32.3414 48.9057 32.5457 48.7352 32.7352C48.5642 32.9235 48.4788 33.1547 48.4788 33.4275C48.4788 33.6142 48.5275 33.793 48.6246 33.9637C48.7234 34.1333 48.8519 34.2704 49.0108 34.3711C49.1712 34.4734 49.3419 34.5242 49.5255 34.5242C49.7882 34.5242 50.0365 34.449 50.269 34.2998C50.5014 34.1507 50.768 33.9396 51.0713 33.6693L49.7474 31.9273H49.7475ZM62.0701 29.442V30.2807C61.8336 30.0294 61.558 29.8317 61.2429 29.6894C60.9261 29.5469 60.5978 29.4756 60.2575 29.4756C59.9321 29.4756 59.6248 29.5413 59.3347 29.6745C59.0445 29.8075 58.7882 29.9917 58.5664 30.2284C58.3442 30.4662 58.171 30.7365 58.0487 31.0416C57.9256 31.3452 57.8638 31.6625 57.8638 31.9919C57.8638 32.4316 57.9729 32.8453 58.1892 33.2339C58.4061 33.6209 58.6991 33.9301 59.069 34.1613C59.4396 34.3926 59.8428 34.5083 60.2764 34.5083C60.6031 34.5083 60.9236 34.4355 61.2389 34.2892C61.5552 34.1425 61.8311 33.9463 62.0701 33.7004V34.5391C61.8115 34.7313 61.5291 34.8791 61.223 34.9826C60.9171 35.0861 60.6085 35.1374 60.2984 35.1374C59.7496 35.1374 59.2372 34.9974 58.7593 34.7179C58.2827 34.4384 57.9043 34.0591 57.6233 33.5806C57.3424 33.1021 57.2016 32.5807 57.2016 32.016C57.2016 31.4475 57.341 30.9206 57.6195 30.4326C57.8979 29.9446 58.2745 29.559 58.7513 29.2741C59.2282 28.9888 59.7431 28.8464 60.2983 28.8464C60.9579 28.8464 61.5486 29.0455 62.07 29.442H62.0701ZM64.8055 35.1373C64.4524 35.1373 64.1265 35.0497 63.8286 34.8736C63.5317 34.6976 63.2954 34.4556 63.1208 34.149C62.946 33.8426 62.8595 33.5079 62.8595 33.1464C62.8595 32.7781 62.946 32.4406 63.1194 32.1328C63.2927 31.8262 63.5277 31.5832 63.8258 31.4043C64.1238 31.2255 64.4513 31.1368 64.8055 31.1368C65.0762 31.1368 65.3297 31.1877 65.5662 31.2913C65.8023 31.3948 66.01 31.5387 66.1885 31.7242C66.3673 31.9111 66.505 32.1246 66.6035 32.3695C66.7018 32.6127 66.7519 32.8707 66.7519 33.1464C66.7519 33.5079 66.6654 33.8426 66.4906 34.149C66.3159 34.4556 66.0797 34.6976 65.7828 34.8736C65.4847 35.0497 65.159 35.1373 64.8055 35.1373ZM64.8055 31.7338C64.5562 31.7338 64.329 31.7968 64.1279 31.922C63.9257 32.047 63.7682 32.2178 63.6567 32.4341C63.5447 32.6504 63.4896 32.8843 63.4896 33.1356C63.4896 33.3897 63.5447 33.6251 63.6567 33.8414C63.7667 34.058 63.9231 34.2287 64.1238 34.3536C64.3261 34.4786 64.5533 34.5405 64.8055 34.5405C65.0591 34.5405 65.2862 34.4786 65.4872 34.3536C65.6868 34.2287 65.8432 34.058 65.9546 33.8428C66.0665 33.6265 66.1214 33.3911 66.1214 33.1356C66.1214 32.8829 66.0665 32.6479 65.9546 32.4327C65.8432 32.2178 65.6856 32.0471 65.4832 31.922C65.2824 31.7969 65.0552 31.7338 64.8055 31.7338ZM68.249 31.2418V31.6529H68.265C68.4816 31.309 68.7785 31.1369 69.155 31.1369C69.3744 31.1369 69.5754 31.1934 69.7593 31.3048C69.9417 31.4179 70.0823 31.5709 70.1782 31.7646C70.2859 31.5631 70.4395 31.4068 70.6392 31.2994C70.839 31.1906 71.0556 31.1368 71.2906 31.1368C72.0784 31.1368 72.4723 31.6663 72.4723 32.7255V35.0323H71.8421V32.8305C71.8421 32.4958 71.8001 32.2297 71.7176 32.0306C71.6333 31.8331 71.4495 31.7337 71.1632 31.7337C70.8428 31.7337 70.6287 31.8546 70.521 32.0967C70.4145 32.337 70.3609 32.6463 70.3609 33.024V35.0322H69.7303V32.8774C69.7303 32.1153 69.5096 31.7336 69.0682 31.7336C68.7389 31.7336 68.5194 31.8599 68.412 32.1139C68.3028 32.368 68.2488 32.6879 68.2488 33.0724V35.0322H67.6182V31.2416H68.2488L68.249 31.2418ZM74.3006 31.2418V31.6529H74.3165C74.5331 31.309 74.8301 31.1369 75.2067 31.1369C75.426 31.1369 75.627 31.1934 75.8108 31.3048C75.9933 31.4179 76.1339 31.5709 76.2298 31.7646C76.3375 31.5631 76.4911 31.4068 76.6907 31.2994C76.8905 31.1906 77.1071 31.1368 77.3422 31.1368C78.13 31.1368 78.5239 31.6663 78.5239 32.7255V35.0323H77.8937V32.8305C77.8937 32.4958 77.8517 32.2297 77.7692 32.0306C77.6849 31.8331 77.5011 31.7337 77.2147 31.7337C76.8944 31.7337 76.6802 31.8546 76.5725 32.0967C76.4661 32.337 76.4125 32.6463 76.4125 33.024V35.0322H75.7819V32.8774C75.7819 32.1153 75.5611 31.7336 75.1198 31.7336C74.7904 31.7336 74.5709 31.8599 74.4635 32.1139C74.3543 32.368 74.3004 32.6879 74.3004 33.0724V35.0322H73.6698V31.2416H74.3004L74.3006 31.2418ZM80.3048 31.2418V33.3548C80.3048 33.6075 80.3234 33.8158 80.3602 33.9827C80.3969 34.1478 80.4769 34.2824 80.6006 34.386C80.7238 34.4892 80.9037 34.5405 81.1416 34.5405C81.3792 34.5405 81.5605 34.4892 81.6828 34.386C81.8046 34.2824 81.8837 34.1478 81.9204 33.9827C81.9571 33.8158 81.9756 33.6075 81.9756 33.3548V31.2418H82.6058V33.4275C82.6058 34.5673 82.1174 35.1374 81.1417 35.1374C80.1631 35.1374 79.6744 34.5674 79.6744 33.4275V31.2418H80.3049H80.3048ZM84.3866 31.2418V31.7002H84.4026C84.6714 31.325 85.0238 31.1369 85.4581 31.1369C85.7842 31.1369 86.0399 31.2094 86.2251 31.3532C86.4104 31.4985 86.5392 31.6893 86.6114 31.93C86.6835 32.1692 86.7191 32.4527 86.7191 32.7807V35.0323H86.0885V32.8951C86.0885 32.512 86.0412 32.2229 85.9466 32.0268C85.8509 31.8318 85.6381 31.7338 85.3072 31.7338C84.9224 31.7338 84.6714 31.8695 84.5572 32.1424C84.4428 32.4152 84.3865 32.7782 84.3865 33.2338V35.0323H83.756V31.2417H84.3865L84.3866 31.2418ZM88.6651 31.2418V35.0324H88.0349V31.2418H88.6651ZM88.3514 29.3546C88.4734 29.3546 88.5787 29.4002 88.6665 29.4903C88.7561 29.5803 88.8005 29.6893 88.8005 29.8154C88.8005 29.9445 88.756 30.0532 88.6665 30.142C88.5787 30.2296 88.4734 30.2738 88.3514 30.2738C88.2294 30.2738 88.1228 30.2296 88.0335 30.1394C87.9443 30.0508 87.8997 29.9419 87.8997 29.8154C87.8997 29.6918 87.9457 29.5843 88.0349 29.4927C88.1255 29.4001 88.2305 29.3545 88.3514 29.3545V29.3546ZM92.7312 31.5147V32.3695H92.7155C92.387 31.9462 92.0033 31.7337 91.5648 31.7337C91.3166 31.7337 91.0921 31.7967 90.8926 31.9246C90.6931 32.0523 90.538 32.2229 90.425 32.4382C90.3137 32.653 90.2568 32.8856 90.2568 33.1354C90.2568 33.387 90.3094 33.6196 90.4157 33.8345C90.5207 34.0483 90.6718 34.2204 90.8677 34.348C91.0633 34.4756 91.2851 34.5403 91.5319 34.5403C92.0113 34.5403 92.4132 34.3225 92.7389 33.887H92.7533V34.7512C92.3819 35.0081 91.9904 35.1371 91.5806 35.1371C91.2144 35.1371 90.8793 35.0495 90.5786 34.8762C90.2766 34.7013 90.0402 34.462 89.868 34.1556C89.6962 33.8505 89.6109 33.5106 89.6109 33.1353C89.6109 32.7685 89.6998 32.4313 89.8772 32.1259C90.0545 31.8195 90.2948 31.5775 90.5999 31.4014C90.903 31.2254 91.2326 31.1367 91.5886 31.1367C92.006 31.1367 92.387 31.2629 92.7311 31.5144L92.7312 31.5147ZM95.2682 31.7337C95.0346 31.7337 94.8254 31.7967 94.6405 31.9232C94.4553 32.0509 94.312 32.2177 94.2125 32.4272C94.1126 32.6356 94.0628 32.8587 94.0628 33.0965C94.0628 33.3506 94.1101 33.5885 94.2045 33.809C94.3003 34.0281 94.4397 34.2056 94.6235 34.3398C94.8074 34.473 95.0253 34.5403 95.2761 34.5403C95.665 34.5403 95.9681 34.4017 96.1864 34.1263C96.4041 33.8506 96.5132 33.5107 96.5132 33.1047C96.5132 32.8506 96.462 32.6194 96.3621 32.4108C96.2622 32.2027 96.1178 32.0373 95.9301 31.9164C95.7409 31.7942 95.5205 31.7337 95.2682 31.7337ZM97.1121 31.2417V35.0323H96.4818V34.5096H96.466C96.1427 34.9274 95.7173 35.1372 95.1896 35.1372C94.9268 35.1372 94.6853 35.0835 94.4634 34.9771C94.2427 34.8696 94.0548 34.7231 93.8998 34.5389C93.7462 34.3547 93.6267 34.1423 93.5427 33.9005C93.4586 33.6599 93.4168 33.4086 93.4168 33.1464C93.4168 32.7821 93.489 32.4474 93.6331 32.1409C93.7775 31.8331 93.9851 31.5899 94.2558 31.4082C94.5276 31.227 94.8415 31.1368 95.1974 31.1368C95.4456 31.1368 95.6804 31.1933 95.9012 31.3047C96.1217 31.4178 96.3095 31.5764 96.466 31.7807H96.4818V31.2417H97.1121ZM98.9386 31.8384V35.0323H98.3084V31.8384H97.9223V31.2417H98.3084V29.8786H98.9386V31.2417H99.6008V31.8384H98.9386ZM100.917 31.2417V35.0323H100.286V31.2417H100.917ZM100.603 29.3545C100.725 29.3545 100.83 29.4001 100.918 29.4902C101.007 29.5802 101.052 29.6892 101.052 29.8153C101.052 29.9443 101.007 30.0531 100.918 30.1419C100.83 30.2295 100.725 30.2737 100.603 30.2737C100.481 30.2737 100.374 30.2295 100.285 30.1393C100.195 30.0507 100.151 29.9418 100.151 29.8153C100.151 29.6917 100.197 29.5842 100.287 29.4926C100.377 29.4 100.482 29.3544 100.603 29.3544L100.603 29.3545ZM103.848 35.1372C103.494 35.1372 103.169 35.0496 102.871 34.8735C102.574 34.6975 102.338 34.4555 102.163 34.1489C101.988 33.8425 101.902 33.5078 101.902 33.1463C101.902 32.778 101.988 32.4405 102.162 32.1327C102.335 31.8261 102.57 31.5831 102.868 31.4042C103.166 31.2254 103.493 31.1367 103.848 31.1367C104.118 31.1367 104.372 31.1876 104.608 31.2912C104.844 31.3947 105.052 31.5386 105.231 31.7241C105.409 31.911 105.547 32.1245 105.646 32.3694C105.744 32.6126 105.794 32.8706 105.794 33.1463C105.794 33.5078 105.707 33.8425 105.533 34.1489C105.358 34.4555 105.122 34.6975 104.825 34.8735C104.527 35.0496 104.201 35.1372 103.848 35.1372ZM103.848 31.7337C103.598 31.7337 103.371 31.7967 103.17 31.9219C102.968 32.0469 102.811 32.2177 102.699 32.434C102.587 32.6503 102.532 32.8842 102.532 33.1355C102.532 33.3896 102.587 33.625 102.699 33.8413C102.809 34.0579 102.966 34.2286 103.166 34.3534C103.368 34.4785 103.596 34.5404 103.848 34.5404C104.101 34.5404 104.328 34.4785 104.529 34.3534C104.729 34.2286 104.885 34.0579 104.997 33.8427C105.108 33.6264 105.164 33.391 105.164 33.1355C105.164 32.8828 105.108 32.6478 104.997 32.4326C104.885 32.2177 104.728 32.047 104.525 31.9219C104.324 31.7968 104.097 31.7337 103.848 31.7337H103.848ZM107.291 31.2417V31.7001H107.307C107.576 31.3249 107.928 31.1368 108.363 31.1368C108.689 31.1368 108.945 31.2093 109.13 31.3531C109.315 31.4984 109.444 31.6892 109.516 31.9299C109.588 32.1691 109.624 32.4526 109.624 32.7806V35.0322H108.993V32.895C108.993 32.5119 108.946 32.2228 108.852 32.0267C108.756 31.8317 108.543 31.7337 108.212 31.7337C107.827 31.7337 107.576 31.8694 107.462 32.1423C107.348 32.4151 107.291 32.7781 107.291 33.2337V35.0322H106.661V31.2416H107.291V31.2417Z" fill="#FECC00"/>
<path d="M20.6103 29.7902L20.0812 30.1369C19.9575 29.9152 19.8155 29.7499 19.6566 29.6396C19.4966 29.5307 19.2968 29.4756 19.0566 29.4756C18.8831 29.4756 18.7205 29.5158 18.568 29.5965C18.4159 29.6773 18.2949 29.7901 18.2056 29.934C18.1163 30.0778 18.0718 30.239 18.0718 30.4192C18.0718 30.5805 18.1177 30.7203 18.2108 30.8398C18.3026 30.9596 18.4118 31.0564 18.5377 31.1317C18.6626 31.2069 18.8175 31.2862 19.0011 31.3696L19.3952 31.5498C19.6935 31.6813 19.9442 31.8184 20.1466 31.9583C20.35 32.098 20.5143 32.2728 20.6365 32.4825C20.7597 32.6921 20.8216 32.9515 20.8216 33.2582C20.8216 33.6035 20.7388 33.9209 20.572 34.2098C20.4052 34.4989 20.1765 34.7261 19.8891 34.8901C19.6017 35.0555 19.2888 35.1375 18.9527 35.1375C18.6404 35.1375 18.3553 35.0729 18.0965 34.9424C17.839 34.812 17.6238 34.628 17.4531 34.3901C17.2824 34.1535 17.1654 33.8779 17.1025 33.5648L17.7486 33.3778C17.7945 33.6977 17.9272 33.9666 18.1452 34.1829C18.3632 34.3995 18.6271 34.5084 18.9385 34.5084C19.1484 34.5084 19.3482 34.4572 19.5371 34.3536C19.7263 34.25 19.8774 34.109 19.9903 33.9276C20.1032 33.746 20.1599 33.5445 20.1599 33.3227C20.1599 33.1036 20.1111 32.9207 20.0126 32.7731C19.9143 32.625 19.7935 32.5069 19.6476 32.4167C19.5031 32.3267 19.3085 32.2259 19.0645 32.1129L18.7007 31.9516C18.4314 31.8279 18.2042 31.7014 18.0204 31.5724C17.8364 31.442 17.6895 31.2822 17.5778 31.0914C17.4659 30.9005 17.4096 30.6691 17.4096 30.3963C17.4096 30.1651 17.4542 29.9527 17.5437 29.7605C17.6327 29.5682 17.7549 29.4042 17.9086 29.2685C18.0636 29.1329 18.2408 29.0281 18.4394 28.9553C18.6375 28.8829 18.8489 28.8465 19.0721 28.8465C19.2929 28.8465 19.5002 28.8843 19.6934 28.9581C19.8879 29.032 20.0625 29.1395 20.22 29.2819C20.3776 29.4244 20.5077 29.5939 20.6101 29.7901L20.6103 29.7902ZM25.0136 33.2743H22.1058C22.1072 33.5067 22.1597 33.7192 22.2636 33.9128C22.3672 34.1064 22.5116 34.2595 22.6957 34.3725C22.8794 34.4839 23.087 34.5405 23.3192 34.5405C23.7896 34.5405 24.1652 34.2796 24.4461 33.758L24.9817 34.074C24.8032 34.4154 24.567 34.6776 24.274 34.8617C23.981 35.0458 23.6477 35.1374 23.2719 35.1374C22.912 35.1374 22.5958 35.0512 22.3199 34.8792C22.0453 34.7073 21.8327 34.472 21.6843 34.1737C21.5347 33.8764 21.4599 33.5471 21.4599 33.1856C21.4599 32.8093 21.5293 32.4638 21.6698 32.1518C21.8103 31.8402 22.0165 31.5927 22.2898 31.4113C22.5616 31.2287 22.8845 31.1371 23.2562 31.1371C23.6242 31.1371 23.9403 31.2297 24.206 31.4139C24.471 31.598 24.6719 31.8521 24.8085 32.1763C24.9451 32.5003 25.0136 32.8658 25.0136 33.2744V33.2743ZM22.1385 32.7257H24.3501C24.3227 32.5471 24.257 32.3817 24.1534 32.2284C24.0497 32.0739 23.9209 31.9541 23.7661 31.8654C23.6111 31.7782 23.4429 31.7339 23.2643 31.7339C22.9923 31.7339 22.7466 31.8305 22.5261 32.0241C22.3068 32.2178 22.177 32.4517 22.1385 32.7257ZM28.6303 31.5149V32.3697H28.6147C28.2861 31.9464 27.9026 31.7339 27.4642 31.7339C27.2157 31.7339 26.9912 31.7969 26.7918 31.9248C26.5922 32.0525 26.4371 32.2232 26.3241 32.4384C26.2128 32.6533 26.1562 32.8858 26.1562 33.1356C26.1562 33.3872 26.2085 33.6198 26.3149 33.8347C26.4198 34.0485 26.5712 34.2206 26.7668 34.3482C26.9624 34.4758 27.1843 34.5405 27.4311 34.5405C27.9104 34.5405 28.3123 34.3227 28.6381 33.8873H28.6526V34.7514C28.2809 35.0083 27.8895 35.1373 27.4798 35.1373C27.1135 35.1373 26.7785 35.0497 26.478 34.8764C26.1758 34.7015 25.9394 34.4622 25.7672 34.1558C25.5953 33.8507 25.51 33.5108 25.51 33.1355C25.51 32.7687 25.599 32.4315 25.7764 32.1261C25.9538 31.8197 26.1939 31.5777 26.4989 31.4016C26.802 31.2256 27.1317 31.1369 27.4879 31.1369C27.9052 31.1369 28.2861 31.2631 28.6303 31.5147V31.5149ZM30.214 31.2419V33.3549C30.214 33.6076 30.2324 33.8159 30.2693 33.9828C30.306 34.1479 30.386 34.2825 30.5094 34.3861C30.6328 34.4893 30.8127 34.5406 31.0506 34.5406C31.2882 34.5406 31.4695 34.4893 31.5916 34.3861C31.7135 34.2825 31.7928 34.1479 31.8292 33.9828C31.8662 33.8159 31.8845 33.6076 31.8845 33.3549V31.2419H32.5147V33.4276C32.5147 34.5674 32.0264 35.1375 31.0506 35.1375C30.072 35.1375 29.5834 34.5675 29.5834 33.4276V31.2419H30.214ZM34.2644 31.2419V31.653H34.2798C34.4113 31.4731 34.5347 31.3427 34.6475 31.2607C34.762 31.1787 34.9128 31.137 35.0994 31.137C35.2755 31.137 35.4647 31.196 35.668 31.3144L35.3672 31.9032C35.2779 31.8387 35.2096 31.7944 35.1651 31.77C35.1203 31.7459 35.0613 31.7339 34.9877 31.7339C34.6869 31.7339 34.4901 31.8722 34.3992 32.1479C34.3088 32.4249 34.2643 32.754 34.2643 33.1357V35.0325H33.6337V31.2419H34.2643H34.2644ZM37.0536 31.2419V35.0325H36.4234V31.2419H37.0536ZM36.7396 29.3547C36.8618 29.3547 36.9669 29.4003 37.055 29.4904C37.1443 29.5804 37.1889 29.6894 37.1889 29.8155C37.1889 29.9446 37.1443 30.0533 37.055 30.1421C36.9669 30.2297 36.8619 30.2739 36.7396 30.2739C36.6178 30.2739 36.5113 30.2297 36.422 30.1395C36.3327 30.0509 36.288 29.942 36.288 29.8155C36.288 29.6919 36.3342 29.5844 36.4235 29.4928C36.5139 29.4002 36.6191 29.3546 36.7397 29.3546L36.7396 29.3547ZM39.0314 31.8387V35.0325H38.4012V31.8387H38.0148V31.2419H38.4012V29.8788H39.0314V31.2419H39.6933V31.8387H39.0314ZM41.348 34.679L39.646 31.2419H40.3789L41.6869 33.9599L42.8846 31.2419H43.6016L40.8672 37.1615H40.1504L41.3479 34.679H41.348ZM49.9053 31.0645L49.9604 31.024C50.047 30.9568 50.1351 30.8883 50.2258 30.8186C50.3175 30.7487 50.3978 30.6759 50.4661 30.6034C50.5355 30.531 50.5921 30.4476 50.6354 30.3521C50.6788 30.2581 50.7009 30.1545 50.7009 30.0415C50.7009 29.8588 50.6382 29.7095 50.5107 29.594C50.3834 29.4771 50.2325 29.4192 50.0551 29.4192C49.8738 29.4192 49.7201 29.4838 49.5925 29.6129C49.4656 29.7419 49.4011 29.9006 49.4011 30.0886C49.4011 30.1586 49.4118 30.2271 49.4339 30.297C49.4548 30.3671 49.4826 30.4299 49.5138 30.4866C49.5454 30.5445 49.5808 30.6021 49.6229 30.6626C49.6649 30.7219 49.7109 30.789 49.762 30.8616L49.9053 31.0647V31.0645ZM52.1035 35.0324L51.4653 34.1775C51.1436 34.4734 50.8323 34.7072 50.5276 34.8792C50.2242 35.0512 49.9038 35.1374 49.5663 35.1374C49.2655 35.1374 48.982 35.066 48.7153 34.9222C48.4475 34.7783 48.2334 34.5794 48.0731 34.3253C47.913 34.0714 47.8327 33.7877 47.8327 33.4759C47.8327 33.1586 47.8985 32.8829 48.0287 32.6479C48.1584 32.4125 48.3214 32.2136 48.5158 32.0485C48.7114 31.8845 48.9688 31.6936 49.2907 31.477L49.3601 31.4272C49.3075 31.3507 49.242 31.2565 49.1633 31.145C49.0844 31.0321 49.0161 30.9217 48.9581 30.8117C48.8991 30.7026 48.8532 30.5913 48.8201 30.477C48.7875 30.3641 48.7707 30.2512 48.7707 30.1381C48.7707 29.8869 48.827 29.6635 48.9396 29.4675C49.0527 29.2713 49.2077 29.1193 49.4059 29.0105C49.6043 28.9016 49.8262 28.8464 50.0705 28.8464C50.2949 28.8464 50.504 28.8976 50.6971 28.9984C50.8899 29.1006 51.0435 29.2429 51.1594 29.4258C51.2736 29.6074 51.3313 29.8131 51.3313 30.0414C51.3313 30.2647 51.2839 30.4647 51.188 30.6421C51.0923 30.8185 50.9809 30.9676 50.8522 31.0871C50.7232 31.2055 50.534 31.3627 50.2834 31.5575L51.5362 33.1935L52.2062 32.3965L52.6867 32.7969L51.9316 33.7017L52.9388 35.0323H52.1036L52.1035 35.0324ZM49.7475 31.9273L49.464 32.1209C49.1488 32.3414 48.9057 32.5457 48.7352 32.7352C48.5642 32.9235 48.4788 33.1547 48.4788 33.4275C48.4788 33.6142 48.5275 33.793 48.6246 33.9637C48.7234 34.1333 48.8519 34.2704 49.0108 34.3711C49.1712 34.4734 49.3419 34.5242 49.5255 34.5242C49.7882 34.5242 50.0365 34.449 50.269 34.2998C50.5014 34.1507 50.768 33.9396 51.0713 33.6693L49.7474 31.9273H49.7475ZM62.0701 29.442V30.2807C61.8336 30.0294 61.558 29.8317 61.2429 29.6894C60.9261 29.5469 60.5978 29.4756 60.2575 29.4756C59.9321 29.4756 59.6248 29.5413 59.3347 29.6745C59.0445 29.8075 58.7882 29.9917 58.5664 30.2284C58.3442 30.4662 58.171 30.7365 58.0487 31.0416C57.9256 31.3452 57.8638 31.6625 57.8638 31.9919C57.8638 32.4316 57.9729 32.8453 58.1892 33.2339C58.4061 33.6209 58.6991 33.9301 59.069 34.1613C59.4396 34.3926 59.8428 34.5083 60.2764 34.5083C60.6031 34.5083 60.9236 34.4355 61.2389 34.2892C61.5552 34.1425 61.8311 33.9463 62.0701 33.7004V34.5391C61.8115 34.7313 61.5291 34.8791 61.223 34.9826C60.9171 35.0861 60.6085 35.1374 60.2984 35.1374C59.7496 35.1374 59.2372 34.9974 58.7593 34.7179C58.2827 34.4384 57.9043 34.0591 57.6233 33.5806C57.3424 33.1021 57.2016 32.5807 57.2016 32.016C57.2016 31.4475 57.341 30.9206 57.6195 30.4326C57.8979 29.9446 58.2745 29.559 58.7513 29.2741C59.2282 28.9888 59.7431 28.8464 60.2983 28.8464C60.9579 28.8464 61.5486 29.0455 62.07 29.442H62.0701ZM64.8055 35.1373C64.4524 35.1373 64.1265 35.0497 63.8286 34.8736C63.5317 34.6976 63.2954 34.4556 63.1208 34.149C62.946 33.8426 62.8595 33.5079 62.8595 33.1464C62.8595 32.7781 62.946 32.4406 63.1194 32.1328C63.2927 31.8262 63.5277 31.5832 63.8258 31.4043C64.1238 31.2255 64.4513 31.1368 64.8055 31.1368C65.0762 31.1368 65.3297 31.1877 65.5662 31.2913C65.8023 31.3948 66.01 31.5387 66.1885 31.7242C66.3673 31.9111 66.505 32.1246 66.6035 32.3695C66.7018 32.6127 66.7519 32.8707 66.7519 33.1464C66.7519 33.5079 66.6654 33.8426 66.4906 34.149C66.3159 34.4556 66.0797 34.6976 65.7828 34.8736C65.4847 35.0497 65.159 35.1373 64.8055 35.1373ZM64.8055 31.7338C64.5562 31.7338 64.329 31.7968 64.1279 31.922C63.9257 32.047 63.7682 32.2178 63.6567 32.4341C63.5447 32.6504 63.4896 32.8843 63.4896 33.1356C63.4896 33.3897 63.5447 33.6251 63.6567 33.8414C63.7667 34.058 63.9231 34.2287 64.1238 34.3536C64.3261 34.4786 64.5533 34.5405 64.8055 34.5405C65.0591 34.5405 65.2862 34.4786 65.4872 34.3536C65.6868 34.2287 65.8432 34.058 65.9546 33.8428C66.0665 33.6265 66.1214 33.3911 66.1214 33.1356C66.1214 32.8829 66.0665 32.6479 65.9546 32.4327C65.8432 32.2178 65.6856 32.0471 65.4832 31.922C65.2824 31.7969 65.0552 31.7338 64.8055 31.7338ZM68.249 31.2418V31.6529H68.265C68.4816 31.309 68.7785 31.1369 69.155 31.1369C69.3744 31.1369 69.5754 31.1934 69.7593 31.3048C69.9417 31.4179 70.0823 31.5709 70.1782 31.7646C70.2859 31.5631 70.4395 31.4068 70.6392 31.2994C70.839 31.1906 71.0556 31.1368 71.2906 31.1368C72.0784 31.1368 72.4723 31.6663 72.4723 32.7255V35.0323H71.8421V32.8305C71.8421 32.4958 71.8001 32.2297 71.7176 32.0306C71.6333 31.8331 71.4495 31.7337 71.1632 31.7337C70.8428 31.7337 70.6287 31.8546 70.521 32.0967C70.4145 32.337 70.3609 32.6463 70.3609 33.024V35.0322H69.7303V32.8774C69.7303 32.1153 69.5096 31.7336 69.0682 31.7336C68.7389 31.7336 68.5194 31.8599 68.412 32.1139C68.3028 32.368 68.2488 32.6879 68.2488 33.0724V35.0322H67.6182V31.2416H68.2488L68.249 31.2418ZM74.3006 31.2418V31.6529H74.3165C74.5331 31.309 74.8301 31.1369 75.2067 31.1369C75.426 31.1369 75.627 31.1934 75.8108 31.3048C75.9933 31.4179 76.1339 31.5709 76.2298 31.7646C76.3375 31.5631 76.4911 31.4068 76.6907 31.2994C76.8905 31.1906 77.1071 31.1368 77.3422 31.1368C78.13 31.1368 78.5239 31.6663 78.5239 32.7255V35.0323H77.8937V32.8305C77.8937 32.4958 77.8517 32.2297 77.7692 32.0306C77.6849 31.8331 77.5011 31.7337 77.2147 31.7337C76.8944 31.7337 76.6802 31.8546 76.5725 32.0967C76.4661 32.337 76.4125 32.6463 76.4125 33.024V35.0322H75.7819V32.8774C75.7819 32.1153 75.5611 31.7336 75.1198 31.7336C74.7904 31.7336 74.5709 31.8599 74.4635 32.1139C74.3543 32.368 74.3004 32.6879 74.3004 33.0724V35.0322H73.6698V31.2416H74.3004L74.3006 31.2418ZM80.3048 31.2418V33.3548C80.3048 33.6075 80.3234 33.8158 80.3602 33.9827C80.3969 34.1478 80.4769 34.2824 80.6006 34.386C80.7238 34.4892 80.9037 34.5405 81.1416 34.5405C81.3792 34.5405 81.5605 34.4892 81.6828 34.386C81.8046 34.2824 81.8837 34.1478 81.9204 33.9827C81.9571 33.8158 81.9756 33.6075 81.9756 33.3548V31.2418H82.6058V33.4275C82.6058 34.5673 82.1174 35.1374 81.1417 35.1374C80.1631 35.1374 79.6744 34.5674 79.6744 33.4275V31.2418H80.3049H80.3048ZM84.3866 31.2418V31.7002H84.4026C84.6714 31.325 85.0238 31.1369 85.4581 31.1369C85.7842 31.1369 86.0399 31.2094 86.2251 31.3532C86.4104 31.4985 86.5392 31.6893 86.6114 31.93C86.6835 32.1692 86.7191 32.4527 86.7191 32.7807V35.0323H86.0885V32.8951C86.0885 32.512 86.0412 32.2229 85.9466 32.0268C85.8509 31.8318 85.6381 31.7338 85.3072 31.7338C84.9224 31.7338 84.6714 31.8695 84.5572 32.1424C84.4428 32.4152 84.3865 32.7782 84.3865 33.2338V35.0323H83.756V31.2417H84.3865L84.3866 31.2418ZM88.6651 31.2418V35.0324H88.0349V31.2418H88.6651ZM88.3514 29.3546C88.4734 29.3546 88.5787 29.4002 88.6665 29.4903C88.7561 29.5803 88.8005 29.6893 88.8005 29.8154C88.8005 29.9445 88.756 30.0532 88.6665 30.142C88.5787 30.2296 88.4734 30.2738 88.3514 30.2738C88.2294 30.2738 88.1228 30.2296 88.0335 30.1394C87.9443 30.0508 87.8997 29.9419 87.8997 29.8154C87.8997 29.6918 87.9457 29.5843 88.0349 29.4927C88.1255 29.4001 88.2305 29.3545 88.3514 29.3545V29.3546ZM92.7312 31.5147V32.3695H92.7155C92.387 31.9462 92.0033 31.7337 91.5648 31.7337C91.3166 31.7337 91.0921 31.7967 90.8926 31.9246C90.6931 32.0523 90.538 32.2229 90.425 32.4382C90.3137 32.653 90.2568 32.8856 90.2568 33.1354C90.2568 33.387 90.3094 33.6196 90.4157 33.8345C90.5207 34.0483 90.6718 34.2204 90.8677 34.348C91.0633 34.4756 91.2851 34.5403 91.5319 34.5403C92.0113 34.5403 92.4132 34.3225 92.7389 33.887H92.7533V34.7512C92.3819 35.0081 91.9904 35.1371 91.5806 35.1371C91.2144 35.1371 90.8793 35.0495 90.5786 34.8762C90.2766 34.7013 90.0402 34.462 89.868 34.1556C89.6962 33.8505 89.6109 33.5106 89.6109 33.1353C89.6109 32.7685 89.6998 32.4313 89.8772 32.1259C90.0545 31.8195 90.2948 31.5775 90.5999 31.4014C90.903 31.2254 91.2326 31.1367 91.5886 31.1367C92.006 31.1367 92.387 31.2629 92.7311 31.5144L92.7312 31.5147ZM95.2682 31.7337C95.0346 31.7337 94.8254 31.7967 94.6405 31.9232C94.4553 32.0509 94.312 32.2177 94.2125 32.4272C94.1126 32.6356 94.0628 32.8587 94.0628 33.0965C94.0628 33.3506 94.1101 33.5885 94.2045 33.809C94.3003 34.0281 94.4397 34.2056 94.6235 34.3398C94.8074 34.473 95.0253 34.5403 95.2761 34.5403C95.665 34.5403 95.9681 34.4017 96.1864 34.1263C96.4041 33.8506 96.5132 33.5107 96.5132 33.1047C96.5132 32.8506 96.462 32.6194 96.3621 32.4108C96.2622 32.2027 96.1178 32.0373 95.9301 31.9164C95.7409 31.7942 95.5205 31.7337 95.2682 31.7337ZM97.1121 31.2417V35.0323H96.4818V34.5096H96.466C96.1427 34.9274 95.7173 35.1372 95.1896 35.1372C94.9268 35.1372 94.6853 35.0835 94.4634 34.9771C94.2427 34.8696 94.0548 34.7231 93.8998 34.5389C93.7462 34.3547 93.6267 34.1423 93.5427 33.9005C93.4586 33.6599 93.4168 33.4086 93.4168 33.1464C93.4168 32.7821 93.489 32.4474 93.6331 32.1409C93.7775 31.8331 93.9851 31.5899 94.2558 31.4082C94.5276 31.227 94.8415 31.1368 95.1974 31.1368C95.4456 31.1368 95.6804 31.1933 95.9012 31.3047C96.1217 31.4178 96.3095 31.5764 96.466 31.7807H96.4818V31.2417H97.1121ZM98.9386 31.8384V35.0323H98.3084V31.8384H97.9223V31.2417H98.3084V29.8786H98.9386V31.2417H99.6008V31.8384H98.9386ZM100.917 31.2417V35.0323H100.286V31.2417H100.917ZM100.603 29.3545C100.725 29.3545 100.83 29.4001 100.918 29.4902C101.007 29.5802 101.052 29.6892 101.052 29.8153C101.052 29.9443 101.007 30.0531 100.918 30.1419C100.83 30.2295 100.725 30.2737 100.603 30.2737C100.481 30.2737 100.374 30.2295 100.285 30.1393C100.195 30.0507 100.151 29.9418 100.151 29.8153C100.151 29.6917 100.197 29.5842 100.287 29.4926C100.377 29.4 100.482 29.3544 100.603 29.3544L100.603 29.3545ZM103.848 35.1372C103.494 35.1372 103.169 35.0496 102.871 34.8735C102.574 34.6975 102.338 34.4555 102.163 34.1489C101.988 33.8425 101.902 33.5078 101.902 33.1463C101.902 32.778 101.988 32.4405 102.162 32.1327C102.335 31.8261 102.57 31.5831 102.868 31.4042C103.166 31.2254 103.493 31.1367 103.848 31.1367C104.118 31.1367 104.372 31.1876 104.608 31.2912C104.844 31.3947 105.052 31.5386 105.231 31.7241C105.409 31.911 105.547 32.1245 105.646 32.3694C105.744 32.6126 105.794 32.8706 105.794 33.1463C105.794 33.5078 105.707 33.8425 105.533 34.1489C105.358 34.4555 105.122 34.6975 104.825 34.8735C104.527 35.0496 104.201 35.1372 103.848 35.1372ZM103.848 31.7337C103.598 31.7337 103.371 31.7967 103.17 31.9219C102.968 32.0469 102.811 32.2177 102.699 32.434C102.587 32.6503 102.532 32.8842 102.532 33.1355C102.532 33.3896 102.587 33.625 102.699 33.8413C102.809 34.0579 102.966 34.2286 103.166 34.3534C103.368 34.4785 103.596 34.5404 103.848 34.5404C104.101 34.5404 104.328 34.4785 104.529 34.3534C104.729 34.2286 104.885 34.0579 104.997 33.8427C105.108 33.6264 105.164 33.391 105.164 33.1355C105.164 32.8828 105.108 32.6478 104.997 32.4326C104.885 32.2177 104.728 32.047 104.525 31.9219C104.324 31.7968 104.097 31.7337 103.848 31.7337H103.848ZM107.291 31.2417V31.7001H107.307C107.576 31.3249 107.928 31.1368 108.363 31.1368C108.689 31.1368 108.945 31.2093 109.13 31.3531C109.315 31.4984 109.444 31.6892 109.516 31.9299C109.588 32.1691 109.624 32.4526 109.624 32.7806V35.0322H108.993V32.895C108.993 32.5119 108.946 32.2228 108.852 32.0267C108.756 31.8317 108.543 31.7337 108.212 31.7337C107.827 31.7337 107.576 31.8694 107.462 32.1423C107.348 32.4151 107.291 32.7781 107.291 33.2337V35.0322H106.661V31.2416H107.291V31.2417Z" fill="white"/>
</svg>
